\relax 
\@writefile{toc}{\contentsline {section}{\numberline {I}Theory of Operation}{1}}
\@writefile{toc}{\contentsline {section}{\numberline {II}Validation}{1}}
\@writefile{toc}{\contentsline {section}{\numberline {III}Appendix}{1}}
\@writefile{lof}{\contentsline {figure}{\numberline {1}{\ignorespaces Screenshot of web browser opening connection to client and downloading webpage.\relax }}{1}}
